Gefäßform	Höhe	max. Radius	Randradius	gem. Volumen
Topf, alle	18,6	10,5	10,1	2,6627
Topf, alle	29,8	13	12,8	7,36399
Topf, alle	33	14,95	14,7	9,36466
Topf, alle	24,8	13,65	13,2	4,97212
Topf, alle	29,1	17,3	16,9	12,0109
Topf, alle	31,9	15,15	14,6	10,673
Topf, alle	27,9	15,55	15,4	9,75661
Topf, alle	22,8	12,3	12,25	4,82146
Topf, alle	27,2	12,6	12,65	6,25866
Topf, alle	26,8	15,05	14,95	6,62303
Topf, alle	28,2	13,45	13,45	7,48768
Topf, alle	21	13,15	12,75	4,75743
Topf, alle	20,7792	11,7857	11,15	4,23056
Topf, alle	21,8717	9,62567	9,35	2,99846
Topf, alle	33,7366	16,7339	16,6	15,0385
Topf, alle	20,5805	9,96042	9,45	3,86392
Topf, alle	22,393	10,5949	10,05	3,51142
Topf, alle	23,3289	10,2607	9,85	4,14001
Topf, alle	17,9333	8,36667	7,9	1,38249
Topf, alle	21,5818	12,5335	12,4	4,55154
