Gefäßform	Höhe	max. Radius	Randradius	gem. Volumen
Flasche, alle	24	11,55	6,3	4,65595
Flasche, alle	10,5867	4,76	4,06	0,388419
Flasche, alle	23,1707	9,38347	4,15	1,99971
Flasche, alle	28,4459	11,0811	5,85	4,62686
Flasche, alle	17	7	5	1,1838
Flasche, alle	31,2	13,1	5,1	7,17906
Flasche, alle	36,2	12,85	7,5	8,95146
Flasche, alle	18,1	7,65	5,15	1,5745
Flasche, alle	33,2432	14,1216	5,3	9,18219
Flasche, alle	34,8649	13,9189	5,5	9,52613
Flasche, alle	29,1095	12,4463	6,9	6,00883
Flasche, alle	49,187	19,4444	9,1	20,7787
Flasche, alle	49,1892	19,3243	9,2	26,3771
Flasche, alle	18,9	7,9	6,3	1,81923
